%YAML 1.1
%TAG !u! tag:unity3d.com,2011:
--- !u!1 &1841928748730534220
GameObject:
  m_ObjectHideFlags: 0
  m_CorrespondingSourceObject: {fileID: 0}
  m_PrefabInstance: {fileID: 0}
  m_PrefabAsset: {fileID: 0}
  serializedVersion: 6
  m_Component:
  - component: {fileID: 1841928748730534193}
  - component: {fileID: 1841928748730534222}
  - component: {fileID: 1841928748730534223}
  - component: {fileID: 1841928748730534195}
  - component: {fileID: 164705086}
  - component: {fileID: 4837212238647612292}
  - component: {fileID: 7997463982391225547}
  m_Layer: 0
  m_Name: Enemy (1)
  m_TagString: virus1
  m_Icon: {fileID: 0}
  m_NavMeshLayer: 0
  m_StaticEditorFlags: 0
  m_IsActive: 1
--- !u!4 &1841928748730534193
Transform:
  m_ObjectHideFlags: 0
  m_CorrespondingSourceObject: {fileID: 0}
  m_PrefabInstance: {fileID: 0}
  m_PrefabAsset: {fileID: 0}
  m_GameObject: {fileID: 1841928748730534220}
  m_LocalRotation: {x: 0, y: 0, z: 0, w: 1}
  m_LocalPosition: {x: -2.09, y: 2.68, z: 0}
  m_LocalScale: {x: 0.5, y: 0.5, z: 1}
  m_Children: []
  m_Father: {fileID: 0}
  m_RootOrder: 0
  m_LocalEulerAnglesHint: {x: 0, y: 0, z: 0}
--- !u!212 &1841928748730534222
SpriteRenderer:
  m_ObjectHideFlags: 0
  m_CorrespondingSourceObject: {fileID: 0}
  m_PrefabInstance: {fileID: 0}
  m_PrefabAsset: {fileID: 0}
  m_GameObject: {fileID: 1841928748730534220}
  m_Enabled: 1
  m_CastShadows: 0
  m_ReceiveShadows: 0
  m_DynamicOccludee: 1
  m_MotionVectors: 1
  m_LightProbeUsage: 1
  m_ReflectionProbeUsage: 1
  m_RenderingLayerMask: 1
  m_RendererPriority: 0
  m_Materials:
  - {fileID: 10754, guid: 0000000000000000f000000000000000, type: 0}
  m_StaticBatchInfo:
    firstSubMesh: 0
    subMeshCount: 0
  m_StaticBatchRoot: {fileID: 0}
  m_ProbeAnchor: {fileID: 0}
  m_LightProbeVolumeOverride: {fileID: 0}
  m_ScaleInLightmap: 1
  m_ReceiveGI: 1
  m_PreserveUVs: 0
  m_IgnoreNormalsForChartDetection: 0
  m_ImportantGI: 0
  m_StitchLightmapSeams: 1
  m_SelectedEditorRenderState: 0
  m_MinimumChartSize: 4
  m_AutoUVMaxDistance: 0.5
  m_AutoUVMaxAngle: 89
  m_LightmapParameters: {fileID: 0}
  m_SortingLayerID: 0
  m_SortingLayer: 0
  m_SortingOrder: 1
  m_Sprite: {fileID: 21300000, guid: 6ae2d112a2d90894586eeb33daf8761c, type: 3}
  m_Color: {r: 1, g: 1, b: 1, a: 1}
  m_FlipX: 0
  m_FlipY: 0
  m_DrawMode: 0
  m_Size: {x: 2.97, y: 2.83}
  m_AdaptiveModeThreshold: 0.5
  m_SpriteTileMode: 0
  m_WasSpriteAssigned: 1
  m_MaskInteraction: 0
  m_SpriteSortPoint: 0
--- !u!61 &1841928748730534223
BoxCollider2D:
  m_ObjectHideFlags: 0
  m_CorrespondingSourceObject: {fileID: 0}
  m_PrefabInstance: {fileID: 0}
  m_PrefabAsset: {fileID: 0}
  m_GameObject: {fileID: 1841928748730534220}
  m_Enabled: 0
  m_Density: 1
  m_Material: {fileID: 0}
  m_IsTrigger: 1
  m_UsedByEffector: 0
  m_UsedByComposite: 0
  m_Offset: {x: 0, y: 0}
  m_SpriteTilingProperty:
    border: {x: 0, y: 0, z: 0, w: 0}
    pivot: {x: 0.5, y: 0.5}
    oldSize: {x: 2.16, y: 2.08}
    newSize: {x: 2.97, y: 2.83}
    adaptiveTilingThreshold: 0.5
    drawMode: 0
    adaptiveTiling: 0
  m_AutoTiling: 0
  serializedVersion: 2
  m_Size: {x: 3, y: 3}
  m_EdgeRadius: 0
--- !u!114 &1841928748730534195
MonoBehaviour:
  m_ObjectHideFlags: 0
  m_CorrespondingSourceObject: {fileID: 0}
  m_PrefabInstance: {fileID: 0}
  m_PrefabAsset: {fileID: 0}
  m_GameObject: {fileID: 1841928748730534220}
  m_Enabled: 1
  m_EditorHideFlags: 0
  m_Script: {fileID: 11500000, guid: 7c68224005370c54daf530075fc51d10, type: 3}
  m_Name: 
  m_EditorClassIdentifier: 
  enemyModel:
    health: 0
    referncePosition: {x: 0, y: 0}
    timeToAttack: 10
  enemyType: 0
  speed: 1.5
  rotateSpeed: 100
  destroySequenceList: 
  currentSequenceList: 
  predictedInt: 0
  onHitEffect:
  - {fileID: 100000, guid: 3156817f64ec68948ad6bb26569b9ef5, type: 3}
  - {fileID: 1280141305896002, guid: d32815ec6953f6644b05fea688267d52, type: 3}
  - {fileID: 100006, guid: db4c892d25cb5bb438840f42fc1f2034, type: 3}
  onDestroyEffect:
  - {fileID: 100000, guid: 684830bb03b04ed4ab62503060a10df2, type: 3}
  onDestroySound: {fileID: 8300000, guid: fa6cba83a4316904f9489e7d058b2c15, type: 3}
  onHitSound: {fileID: 8300000, guid: e6635f9609d0cd045aa33e0224d3d098, type: 3}
  audioSource: {fileID: 0}
  gameManager: {fileID: 0}
  objectColor: {r: 0, g: 0, b: 0, a: 0}
  colorDecreaseStep: 0
  humanGameObject: {fileID: 0}
  attack: 0
--- !u!50 &164705086
Rigidbody2D:
  serializedVersion: 4
  m_ObjectHideFlags: 0
  m_CorrespondingSourceObject: {fileID: 0}
  m_PrefabInstance: {fileID: 0}
  m_PrefabAsset: {fileID: 0}
  m_GameObject: {fileID: 1841928748730534220}
  m_BodyType: 1
  m_Simulated: 1
  m_UseFullKinematicContacts: 0
  m_UseAutoMass: 0
  m_Mass: 1
  m_LinearDrag: 0
  m_AngularDrag: 0.05
  m_GravityScale: 0.01
  m_Material: {fileID: 0}
  m_Interpolate: 1
  m_SleepingMode: 1
  m_CollisionDetection: 0
  m_Constraints: 0
--- !u!95 &4837212238647612292
Animator:
  serializedVersion: 3
  m_ObjectHideFlags: 0
  m_CorrespondingSourceObject: {fileID: 0}
  m_PrefabInstance: {fileID: 0}
  m_PrefabAsset: {fileID: 0}
  m_GameObject: {fileID: 1841928748730534220}
  m_Enabled: 1
  m_Avatar: {fileID: 0}
  m_Controller: {fileID: 9100000, guid: 7e132d5ba6c2bf943b30501b0fd2e3b6, type: 2}
  m_CullingMode: 0
  m_UpdateMode: 0
  m_ApplyRootMotion: 0
  m_LinearVelocityBlending: 0
  m_WarningMessage: 
  m_HasTransformHierarchy: 1
  m_AllowConstantClipSamplingOptimization: 1
  m_KeepAnimatorControllerStateOnDisable: 0
--- !u!60 &7997463982391225547
PolygonCollider2D:
  m_ObjectHideFlags: 0
  m_CorrespondingSourceObject: {fileID: 0}
  m_PrefabInstance: {fileID: 0}
  m_PrefabAsset: {fileID: 0}
  m_GameObject: {fileID: 1841928748730534220}
  m_Enabled: 1
  m_Density: 1
  m_Material: {fileID: 0}
  m_IsTrigger: 1
  m_UsedByEffector: 0
  m_UsedByComposite: 0
  m_Offset: {x: 0, y: 0}
  m_SpriteTilingProperty:
    border: {x: 0, y: 0, z: 0, w: 0}
    pivot: {x: 0.5, y: 0.5}
    oldSize: {x: 2.16, y: 2.08}
    newSize: {x: 2.97, y: 2.83}
    adaptiveTilingThreshold: 0.5
    drawMode: 0
    adaptiveTiling: 0
  m_AutoTiling: 0
  m_Points:
    m_Paths:
    - - {x: 0.22999999, y: -0.81}
      - {x: 0.5, y: -0.81}
      - {x: 0.57, y: -0.72999996}
      - {x: 0.51, y: -0.59999996}
      - {x: 0.68, y: -0.65999997}
      - {x: 0.82, y: -0.68}
      - {x: 1.03, y: -0.47}
      - {x: 1.04, y: -0.39999998}
      - {x: 1.03, y: -0.37}
      - {x: 0.98999995, y: -0.31}
      - {x: 0.75, y: -0.24}
      - {x: 0.78999996, y: -0.08}
      - {x: 0.89, y: -0.16}
      - {x: 0.95, y: -0.16}
      - {x: 1.04, y: -0.089999996}
      - {x: 1.0799999, y: 0.01}
      - {x: 1.0799999, y: 0.089999996}
      - {x: 1.05, y: 0.19}
      - {x: 0.94, y: 0.17999999}
      - {x: 0.83, y: 0.14}
      - {x: 0.72999996, y: 0.34}
      - {x: 1.01, y: 0.32999998}
      - {x: 1.0799999, y: 0.39999998}
      - {x: 1.0799999, y: 0.58}
      - {x: 0.96999997, y: 0.78}
      - {x: 0.81, y: 0.78999996}
      - {x: 0.65, y: 0.55}
      - {x: 0.39, y: 0.64}
      - {x: 0.45, y: 0.69}
      - {x: 0.48999998, y: 0.79999995}
      - {x: 0.28, y: 0.94}
      - {x: 0.17999999, y: 0.91999996}
      - {x: 0.12, y: 0.84999996}
      - {x: 0.13, y: 0.78}
      - {x: 0.08, y: 0.69}
      - {x: -0.12, y: 0.75}
      - {x: -0.089999996, y: 0.84}
      - {x: -0.099999994, y: 0.96999997}
      - {x: -0.19, y: 1.04}
      - {x: -0.29999998, y: 1.04}
      - {x: -0.51, y: 0.96}
      - {x: -0.57, y: 0.89}
      - {x: -0.56, y: 0.78}
      - {x: -0.31, y: 0.59}
      - {x: -0.55, y: 0.42999998}
      - {x: -0.64, y: 0.53999996}
      - {x: -0.76, y: 0.55}
      - {x: -0.87, y: 0.37}
      - {x: -0.84999996, y: 0.29999998}
      - {x: -0.79999995, y: 0.22999999}
      - {x: -0.69, y: 0.22999999}
      - {x: -0.61, y: 0.24}
      - {x: -0.63, y: -0.02}
      - {x: -0.88, y: 0.08}
      - {x: -1.0799999, y: 0.03}
      - {x: -1.0799999, y: -0.22999999}
      - {x: -1, y: -0.38}
      - {x: -0.87, y: -0.37}
      - {x: -0.65, y: -0.19999999}
      - {x: -0.5, y: -0.35999998}
      - {x: -0.59999996, y: -0.35}
      - {x: -0.66999996, y: -0.39999998}
      - {x: -0.66999996, y: -0.51}
      - {x: -0.56, y: -0.65}
      - {x: -0.44, y: -0.66999996}
      - {x: -0.35999998, y: -0.53}
      - {x: -0.19, y: -0.64}
      - {x: -0.31, y: -0.71999997}
      - {x: -0.41, y: -0.82}
      - {x: -0.35, y: -0.98999995}
      - {x: -0.17999999, y: -1.04}
      - {x: -0.01, y: -1.04}
      - {x: 0.04, y: -0.98999995}
      - {x: 0.01, y: -0.69}
      - {x: 0.19999999, y: -0.65999997}
